....................
----------------------------------------------------------------------
Ran 20 tests in 1.534s

OK
Name             Stmts   Miss Branch BrPart  Cover   Missing
------------------------------------------------------------
Collatz.py          91      0     32      0   100%
TestCollatz.py      88      0      0      0   100%
------------------------------------------------------------
TOTAL              179      0     32      0   100%
